# -*- encoding: utf-8 -*-
=begin
= 被ダメージ用セリフ設定（アクター用）

:dead_word ... 通常戦闘不能用セリフ
:orgasm_word ... 快楽戦闘不能用セリフ
:predation_word ... 捕食戦闘不能用セリフ
:incontinence_word ... 失禁用セリフ

==更新履歴
Date     Version Author Comment

=end

#==============================================================================
# ■ NWConst::Actor
#==============================================================================
module NWConst::Actor
  DOWN_WORDS = {
    1 => { # ルカ
      :dead_word => ["[Luka]\nこんなところで、力尽きるなんて……", "ruka_fc1", 0],
      :orgasm_word => ["[Luka]\nだめ、イっちゃうよぉ……\nあ、あぁぁぁぁ……！", "ruka_fc1", 0],
      :predation_word => ["[Luka]\nいやだぁ、食べないでぇ……\nあ、あぁぁぁぁ……！", "ruka_fc1", 0],
      :incontinence_word => ["[Luka]\n漏らしちゃうよぉ……\nあ、あぁぁぁぁ……！", "ruka_fc1", 0],
    },
    5 => { # アリス
      :dead_word => ["[Alice]\nぐっ、余がこんな……", "alice_fc5", 3],
      :orgasm_word => ["[Alice]\n余が、イかされてしまうなど……", "alice_fc5", 3],
      :predation_word => ["[Alice]\nた、食べるな……！\nうぁぁぁぁぁ！！", "alice_fc6", 0],
      :incontinence_word => ["[Alice]\n余が漏らすなど……\nあぁぁぁぁ……", "alice_fc6", 0],
    },
    12 => { # シルフ
      :dead_word => ["[Sylph]\nもうだめだよぉ……\nぐったり……", "sylph_fc1", 4],
      :orgasm_word => ["[Sylph]\nイっちゃうよぉ……\nはふぅぅぅ……", "sylph_fc1", 4],
      :predation_word => ["[Sylph]\nた、食べないでぇ……\nひゃぁぁぁん！", "sylph_fc1", 4],
      :incontinence_word => ["[Sylph]\nオモラシしちゃうよぉ……\nだめぇぇぇ……", "sylph_fc1", 4],
    },
    13 => { # ノーム
      :dead_word => ["[Gnome]\n……………………", "gnome_fc1", 1],
      :orgasm_word => ["[Gnome]\n…………～～！", "gnome_fc1", 1],
      :predation_word => ["[Gnome]\n……！！", "gnome_fc1", 1],
      :incontinence_word => ["[Gnome]\n……………………", "gnome_fc1", 1],
    },
    26 => { # イリアス
      :dead_word => ["[Ilias]\nなぜこの私が、こんな目に……", "iriasu_fc4", 4],
      :orgasm_word => ["[Ilias]\nこの私が、イってしまうなど……\nいや……あ、あぁぁぁ……", "iriasu_fc4", 6],
      :predation_word => ["[Ilias]\nい、いやです……たべないで……\nひゃぁぁぁぁ……！", "iriasu_fc4", 6],
      :incontinence_word => ["[Ilias]\nダメです、見ないで下さい……\nはぅぅぅぅぅ……", "iriasu_fc4", 6],
    },
    41 => { # プロメスティン
      :dead_word => ["[Promestein]\n意識が、遠のいて……", "stein_fc2", 2],
      :orgasm_word => ["[Promestein]\nこんな快感、はじめて……\nひゃぅぅぅん！", "stein_fc2", 2],
      :predation_word => ["[Promestein]\nや、やめて……食べないで……\nきゃぁぁぁぁ！", "stein_fc2", 2],
      :incontinence_word => ["[Promestein]\nこんな……漏らすところ、見られるなんて……\nはぅぅぅぅぅ……", "stein_fc2", 2],
    },
    53 => { # ライム
      :dead_word => ["[Lime]\nうにゅ～……", "slime_fc1", 2],
      :orgasm_word => ["[Lime]\nふにゃぁぁぁ……", "slime_fc1", 2],
      :predation_word => ["[Lime]\nたべられるの、やだ……\nひゃぁぁぁ……！", "slime_fc1", 2],
      :incontinence_word => ["[Lime]\nもらしちゃうよぉ……\nふぁぁぁぁ……", "slime_fc1", 2],
    },
    54 => { # うさ
      :dead_word => ["[Bunni]\nきゅう……", "bunnyslime_fc1", 3],
      :orgasm_word => ["[Bunni]\nイっちゃうよぉ……\nうにゅぅ……", "bunnyslime_fc1", 2],
      :predation_word => ["[Bunni]\nあたし、おいしくないよ……\nただのスライムだから……ひゃぁぁぁ！", "bunnyslime_fc1", 3],
      :incontinence_word => ["[Bunni]\nもれちゃう……\nうにゃぁぁぁ……", "bunnyslime_fc1", 2],
    },
    55 => { # メルク
      :dead_word => ["[Melk]\nネバネバ分が……足りないわ……", "name_fc1", 1],
      :orgasm_word => ["[Melk]\nああ、イっちゃう……", "name_fc1", 1],
      :predation_word => ["[Melk]\nやめて、食べないで……\nいやぁぁぁ……！", "name_fc1", 1],
      :incontinence_word => ["[Melk]\nああ、排出しちゃう……\nあぁぁぁぁ……", "name_fc1", 1],
    },
    56 => { # ラミ
      :dead_word => ["[Rami]\nあたし、もうダメだよぉ……", "inp_fc1", 2],
      :orgasm_word => ["[Rami]\nイっちゃうよぉ……\nはぅぅぅぅ……", "inp_fc1", 3],
      :predation_word => ["[Rami]\nた、食べないで……ね？\nひゃぁぁぁぁん！", "inp_fc1", 2],
      :incontinence_word => ["[Rami]\nオモラシしちゃうよぉ……\nふぇぇぇぇ……", "inp_fc1", 3],
    },
    57 => { # ルミ
      :dead_word => ["[Rumi]\nぐったり……", "inp_fc3", 2],
      :orgasm_word => ["[Rumi]\nだめ……", "inp_fc3", 2],
      :predation_word => ["[Rumi]\nやだ……", "inp_fc3", 2],
      :incontinence_word => ["[Rumi]\nもれる……", "inp_fc3", 2],
    },
    58 => { # レミ
      :dead_word => ["[Remi]\nぱたり……", "inp_fc2", 2],
      :orgasm_word => ["[Remi]\nびく……びくびくびくん！", "inp_fc2", 2],
      :predation_word => ["[Remi]\nびくびくびく……\n…………！！", "inp_fc2", 2],
      :incontinence_word => ["[Remi]\nだめ……だめぇ……", "inp_fc2", 2],
    },
    59 => { # ラゴラ
      :dead_word => ["[Ragora]\nもう無理だわ……", "mdg_fc1", 2],
      :orgasm_word => ["[Ragora]\nああ、イっちゃう……", "mdg_fc1", 2],
      :predation_word => ["[Ragora]\n食べるなら、頭の葉っぱだけにしてよぉ……\nいやぁぁぁぁ！！", "mdg_fc1", 2],
      :incontinence_word => ["[Ragora]\nも、漏らしちゃうなんて……\nあぁぁ……", "mdg_fc1", 2],
    },
    60 => { # ポチ
      :dead_word => ["[Pochi]\nきゃうん……", "dog_fc1", 4],
      :orgasm_word => ["[Pochi]\nほわわん……", "dog_fc1", 4],
      :predation_word => ["[Pochi]\nく～ん、食べないで……\n……きゃんきゃん！", "dog_fc1", 4],
      :incontinence_word => ["[Pochi]\nオモラシじゃないの、マーキングなのぉ……\nじょろろろろ……", "dog_fc1", 4],
    },
    61 => { # ミミー
      :dead_word => ["[Mimi]\nミミズは土に還るわ……", "mimizu_fc1", 2],
      :orgasm_word => ["[Mimi]\nイっちゃう……ミミズなのに……", "mimizu_fc1", 2],
      :predation_word => ["[Mimi]\nミミズを食べるなんて、ゲテモノ好きなの……！？\nきゃぁぁ！", "mimizu_fc1", 2],
      :incontinence_word => ["[Mimi]\nミミズが漏らすところなんて……\n見ないでよぉ……", "mimizu_fc1", 2],
    },
    62 => { # ゴブ
      :dead_word => ["[Gob]\nちょっと休ませてね……", "gob_fc1", 3],
      :orgasm_word => ["[Gob]\nこんなの……ダメになっちゃうよぉ……！", "gob_fc1", 3],
      :predation_word => ["[Gob]\nた、食べるなぁ……！\nやだぁぁぁぁ！！", "gob_fc1", 3],
      :incontinence_word => ["[Gob]\nオモラシとか……恥ずかしいよぉ……", "gob_fc1", 3],
    },
    64 => { # プチ
      :dead_word => ["[Teeny]\nこんなぁ……きゅう……", "pramia_fc1", 2],
      :orgasm_word => ["[Teeny]\n感じちゃうよぉ……ふぁぁぁ……", "pramia_fc1", 2],
      :predation_word => ["[Teeny]\nあたし、おいしくないから！\nちょっと、聞いてる……？　きゃぁぁぁ！", "pramia_fc1", 2],
      :incontinence_word => ["[Teeny]\nも、もらしちゃう……\nあぅぅぅ……", "pramia_fc1", 2],
    },
    66 => { # ヴァニラ
      :dead_word => ["[Vanilla]\nI see a world of darkness closing in...", "vgirl_fc1", 2],
      :orgasm_word => ["[Vanilla]\nNo, I'm coming...\nHyauuun...", "vgirl_fc1", 2],
      :predation_word => ["[Vanilla]\nNo, don't eat me... Stop...!\nHyaaaa!", "vgirl_fc1", 2],
      :incontinence_word => ["[Vanilla]\nI peed myself again...", "vgirl_fc1", 2],
    },
    68 => { # パピ
      :dead_word => ["[Papi]\nうがが……", "dragonp_fc1", 2],
      :orgasm_word => ["[Papi]\nなんなのだ、これ……？\nからだが……はぅぅぅ～～！", "dragonp_fc1", 2],
      :predation_word => ["[Papi]\nた、食べるな！　胃の中で噛み付くぞ……！\nひゃぁぁぁぁぁ！！", "dragonp_fc1", 2],
      :incontinence_word => ["[Papi]\nパンツ、濡らしちゃったぞ……", "dragonp_fc1", 2],
    },
    70 => { # ラティ
      :dead_word => ["[Ratty]\nあたし、もうダメ……", "nezumi_fc1", 2],
      :orgasm_word => ["[Ratty]\nい、イっちゃうよぉ～！", "nezumi_fc1", 2],
      :predation_word => ["[Ratty]\nた、食べちゃダメ……\nやぁぁぁぁ！！", "nezumi_fc1", 2],
      :incontinence_word => ["[Ratty]\nおもらし……見ないで……\nふぁぁぁぁ……", "nezumi_fc1", 2],
    },
    71 => { # アマラ
      :dead_word => ["[Amara]\nうが……ご先祖様が、呼んでるぞ……", "okami_fc1", 2],
      :orgasm_word => ["[Amara]\nうが……頭の中が真っ白になるぞ……", "okami_fc1", 2],
      :predation_word => ["[Amara]\nあたしが、食べられるなんて……\nいやぁぁぁ……！！", "okami_fc1", 2],
      :incontinence_word => ["[Amara]\nこんなところで、漏らしちゃうなんて……", "okami_fc1", 2],
    },
    72 => { # ミニ
      :dead_word => ["[Mini]\nやられちゃったぞー！", "phoenix_fc1", 2],
      :orgasm_word => ["[Mini]\nこんなの、初めてだぞ……\nひゃぅぅ……", "phoenix_fc1", 5],
      :predation_word => ["[Mini]\nフェニックス食べたらヤケドするぞ……！\nひゃぁぁぁぁ！！", "phoenix_fc1", 2],
      :incontinence_word => ["[Mini]\nオモラシなんて、卒業したんだぞ……\nでも、もれちゃう……", "phoenix_fc1", 5],
    },
    73 => { # ヒル
      :dead_word => ["[Hiru]\nそ、そんな……！", "hiru_fc1", 2],
      :orgasm_word => ["[Hiru]\n私、がイかされるなんて……", "hiru_fc1", 2],
      :predation_word => ["[Hiru]\n私が食べられるの……？\nあ、あぁぁぁぁ……！", "hiru_fc1", 2],
      :incontinence_word => ["[Hiru]\n私が体液を垂れ流すなんて……\nあぁぁぁ……", "hiru_fc1", 2],
    },
    74 => { # バーニー
      :dead_word => ["[Barbun]\nくっ、不覚を取ったわね……", "usagi_fc1", 2],
      :orgasm_word => ["[Barbun]\nみんなの前で、イかされちゃうなんて……", "usagi_fc1", 2],
      :predation_word => ["[Barbun]\nた、食べないで……お姉さん、何でもするから……\nきゃぁぁぁぁ！！", "usagi_fc1", 2],
      :incontinence_word => ["[Barbun]\nも、漏らしちゃうなんて、恥ずかしい……", "usagi_fc1", 2],
    },
    75 => { # メリー
      :dead_word => ["[Mary]\n川の向こうで、ヒツジおばあちゃんが手を振ってるのら……", "hituzi_fc1", 3],
      :orgasm_word => ["[Mary]\nよっぱらいにイタズラするなんて、らめなのらぁ～", "hituzi_fc1", 3],
      :predation_word => ["[Mary]\nあたしを食べると、肝臓に悪いのら……", "hituzi_fc1", 3],
      :incontinence_word => ["[Mary]\n漏らしちゃうのら……\nよっぱらいだから許して……", "hituzi_fc1", 3],
    },
    76 => { # シュリー
      :dead_word => ["[Sully]\nもう動けないよぉ……", "syuree_fc1", 2],
      :orgasm_word => ["[Sully]\nなにこれ、気持ちいいよぉ……", "syuree_fc1", 3],
      :predation_word => ["[Sully]\nあたしって、オイシイのぉ？\n感想、聞かせてね……", "syuree_fc1", 1],
      :incontinence_word => ["[Sully]\n漏らしちゃうよぉ……\nじょろろろろ……", "syuree_fc1", 3],
    },
    77 => { # ジェイド
      :dead_word => ["[Jaide]\n機能停止、シャットオフ……", "jeid_fc1", 2],
      :orgasm_word => ["[Jaide]\n快楽メーター、マックス……", "jeid_fc1", 3],
      :predation_word => ["[Jaide]\n危険度最大……捕食されます……", "jeid_fc1", 2],
      :incontinence_word => ["[Jaide]\nオイル排出……\nいや、これはオイルではなく……", "jeid_fc1", 3],
    },
    78 => { # シェスタ
      :dead_word => ["[Shesta]\nああ、神様……", "syesta_fc1", 2],
      :orgasm_word => ["[Shesta]\n気持ちいい、いっちゃう……", "syesta_fc1", 2],
      :predation_word => ["[Shesta]\n私が、食べられる……？", "syesta_fc1", 2],
      :incontinence_word => ["[Shesta]\n私が、漏らすの……？", "syesta_fc1", 2],
    },
    79 => { # ヌルコ
      :dead_word => ["[Nuruko]\nきゅ……", "nuruko_fc1", 2],
      :orgasm_word => ["[Nuruko]\nきゅ～～", "nuruko_fc1", 2],
      :predation_word => ["[Nuruko]\n……きゅ！！", "nuruko_fc1", 2],
      :incontinence_word => ["[Nuruko]\nきゅきゅ……", "nuruko_fc1", 2],
    },
    80 => { # ヒップ
      :dead_word => ["[Hip]\nぶひぃ……", "orc_fc1", 2],
      :orgasm_word => ["[Hip]\nオークなのに……\nオークなのにぃ……", "orc_fc1", 2],
      :predation_word => ["[Hip]\nぶひぃ、あたしは美味しくないです！\nおいしそうですけど、おいしくないです……", "orc_fc1", 2],
      :incontinence_word => ["[Hip]\nぶひ……オークなのに、こんな屈辱……", "orc_fc1", 2],
    },
    81 => { # ハニー
      :dead_word => ["[Honey]\nハチミツ舐めて、休憩するわ……", "mitubati_fc1", 2],
      :orgasm_word => ["[Honey]\nこんなの、イかされちゃうわ……", "mitubati_fc1", 2],
      :predation_word => ["[Honey]\nあたし、甘くて美味しいと思ってる？\nたぶん正解だけど、やめてぇ……！", "mitubati_fc1", 2],
      :incontinence_word => ["[Honey]\nああ、漏らしちゃうわ……", "mitubati_fc1", 2],
    },
    82 => { # ちゅん
      :dead_word => ["[Chirp]\nどうせあたし、弱いですし……", "suzume_fc1", 3],
      :orgasm_word => ["[Chirp]\nダメです、イっちゃいます……", "suzume_fc1", 3],
      :predation_word => ["[Chirp]\n食べられちゃうんですか、あたし……", "suzume_fc1", 3],
      :incontinence_word => ["[Chirp]\nこんなの、恥ずかしいです……", "suzume_fc1", 3],
    },
    83 => { # レイナ
      :dead_word => ["[Reina]\nかわしきれなかったよぉ……", "hapy_a_fc1", 2],
      :orgasm_word => ["[Reina]\nイっちゃう、きもちいいよぉ……", "hapy_a_fc1", 2],
      :predation_word => ["[Reina]\nた、食べないでぇ……\nあぁぁぁぁ！", "hapy_a_fc1", 2],
      :incontinence_word => ["[Reina]\nやだぁ、漏れちゃうよぉ……", "hapy_a_fc1", 2],
    },
    84 => { # ピナ＆ピィ
      :dead_word => ["[Pina & Pii]\nお姉ちゃん、もうダメだよぉ……", "hapy_bc_fc1", 2],
      :orgasm_word => ["[Pina & Pii]\nお姉ちゃん、イかされちゃうよぉ……", "hapy_bc_fc1", 2],
      :predation_word => ["[Pina & Pii]\nお姉ちゃん、食べられちゃうよぉ……", "hapy_bc_fc1", 2],
      :incontinence_word => ["[Pina & Pii]\n妹の前で、オモラシしちゃうなんて……", "hapy_bc_fc1", 2],
    },
    85 => { # エリザベス
      :dead_word => ["[Elizabeth]\nく、くやしい……この私が……！", "highslag_fc1", 2],
      :orgasm_word => ["[Elizabeth]\n私がイかされるなんて……くやしい……！", "highslag_fc1", 2],
      :predation_word => ["[Elizabeth]\nわ、私が食べられるなんて……！", "highslag_fc1", 2],
      :incontinence_word => ["[Elizabeth]\nわ、私が人前で漏らすなんて……", "highslag_fc1", 2],
    },
    86 => { # ロザリオ
      :dead_word => ["[Rosary]\n神よ、少し休みます……", "name_s_fc1", 2],
      :orgasm_word => ["[Rosary]\nああ、このような快感が……\nあぁぁぁぁ……！", "name_s_fc1", 2],
      :predation_word => ["[Rosary]\nああ神よ、助けて……\nあ、あぁぁぁぁ……！", "name_s_fc1", 2],
      :incontinence_word => ["[Rosary]\nああ、このような屈辱……\nあぁぁぁぁ……", "name_s_fc1", 2],
    },
    87 => { # メルティ
      :dead_word => ["[Melty]\n私達が、かなわないなんて……", "name2_fc2", 3],
      :orgasm_word => ["[Melty]\n私達が、イかされるなんて……", "name2_fc2", 3],
      :predation_word => ["[Melty]\nた、食べないで……あぁぁぁ！", "name2_fc2", 3],
      :incontinence_word => ["[Melty]\nああ、漏らしちゃう……", "name2_fc2", 3],
    },
    88 => { # かぼちゃ
      :dead_word => ["[Pumpkin]\nかぼちゃ、こわれちゃった……", "jack_fc1", 2],
      :orgasm_word => ["[Pumpkin]\nおまたが……変なの……", "jack_fc1", 2],
      :predation_word => ["[Pumpkin]\nあたし、かぼちゃの味しかしないよ……", "jack_fc1", 2],
      :incontinence_word => ["[Pumpkin]\nオモラシしちゃう……", "jack_fc1", 2],
    },
    89 => { # シンディ
      :dead_word => ["[Cindy]\nお腹が減ったわね……", "ropa_fc1", 2],
      :orgasm_word => ["[Cindy]\nこんな……イかされるなんて……", "ropa_fc1", 2],
      :predation_word => ["[Cindy]\nあたし、食べられるの……？", "ropa_fc1", 2],
      :incontinence_word => ["[Cindy]\n漏らすなんて……見ないでよ……", "ropa_fc1", 2],
    },
    90 => { # メルメル
      :dead_word => ["[Meru Meru]\nかさかさ……ぱたり。", "meda_fc1", 0],
      :orgasm_word => ["[Meru Meru]\nびくびく、びくん……", "meda_fc1", 0],
      :predation_word => ["[Meru Meru]\nじたばた、もぞもぞ……", "meda_fc1", 0],
      :incontinence_word => ["[Meru Meru]\nぶるぶる、ぶるっ……", "meda_fc1", 0],
    },
    91 => { # キャンドラ
      :dead_word => ["[Chandra]\nこの火も消えてしまうのね……", "candle_fc1", 2],
      :orgasm_word => ["[Chandra]\n最期に、こんな快楽が味わえるなんて……", "candle_fc1", 2],
      :predation_word => ["[Chandra]\n他者の糧となって、生を終えるのね……", "candle_fc1", 2],
      :incontinence_word => ["[Chandra]\nこんなの……ロウが漏れ出してしまうわ……", "candle_fc1", 2],
    },
    92 => { # イーター
      :dead_word => ["[Eater]\n食べたい……食べたい……", "eater_fc1", 2],
      :orgasm_word => ["[Eater]\n体、おかしい……", "eater_fc1", 1],
      :predation_word => ["[Eater]\n食べられるの、やだ……\n食べたい……", "eater_fc1", 4],
      :incontinence_word => ["[Eater]\n漏れる……", "eater_fc1", 1],
    },
    93 => { # ライオット
      :dead_word => ["[Riot]\nぐっ、もう無理か……", "liot_fc1", 2],
      :orgasm_word => ["[Riot]\nだ、だめ……感じすぎて……", "liot_fc1", 3],
      :predation_word => ["[Riot]\nここで餌食となるか……", "liot_fc1", 2],
      :incontinence_word => ["[Riot]\nこんな、私が……惨めだ……", "liot_fc1", 3],
    },
    94 => { # ルクスル
      :dead_word => ["[Luxuru]\n戦闘続行不能……体が、動かな……", "luksl_fc1", 2],
      :orgasm_word => ["[Luxuru]\nあははっ、イかせてくれるのぉ……！？", "luksl_fc1", 1],
      :predation_word => ["[Luxuru]\n私は胃にもたれるわ、心しなさいよねぇ！", "luksl_fc1", 2],
      :incontinence_word => ["[Luxuru]\nあははっ、漏れちゃうわぁ……！", "luksl_fc1", 1],
    },
    95 => { # ロナ
      :dead_word => ["[Lona]\nくっ、私が負けるなんて……", "delh_a_fc1", 2],
      :orgasm_word => ["[Lona]\nだ、だめ……イっちゃう～！", "delh_a_fc1", 2],
      :predation_word => ["[Lona]\nた、食べないで……やめて……\nあぁぁぁぁ……！！", "delh_a_fc1", 2],
      :incontinence_word => ["[Lona]\nだめ、漏れちゃう……\nやめてぇ、見ないでぇ……", "delh_a_fc1", 2],
    },
    96 => { # マリオン
      :dead_word => ["[Marion]\nこれ以上は、もう無理ね……", "delh_b_fc1", 2],
      :orgasm_word => ["[Marion]\nこの私が、イかされるなんて……", "delh_b_fc1", 2],
      :predation_word => ["[Marion]\n私が食べられるなんて、そんな……", "delh_b_fc1", 2],
      :incontinence_word => ["[Marion]\nああ、こんな屈辱……", "delh_b_fc1", 2],
    },
    97 => { # フェル
      :dead_word => ["[Fell]\nうわ～", "fairy_fc1", 2],
      :orgasm_word => ["[Fell]\nイっちゃうよぉ～", "fairy_fc1", 2],
      :predation_word => ["[Fell]\nいやぁ……食べないでぇ……", "fairy_fc1", 2],
      :incontinence_word => ["[Fell]\nオモラシしちゃうよぉ……", "fairy_fc1", 2],
    },
    98 => { # エイミ
      :dead_word => ["[Amy]\nうわ～ん！", "minikani_fc1", 2],
      :orgasm_word => ["[Amy]\nイっちゃうところ、見ないで～！", "minikani_fc1", 2],
      :predation_word => ["[Amy]\nわ～ん、食べないで～！", "minikani_fc1", 2],
      :incontinence_word => ["[Amy]\nオモラシするところ、見ないで～！", "minikani_fc1", 2],
    },
    99 => { # ギギ
      :dead_word => ["[Gigi]\nおのれ、年寄りをいじめるとは……", "namazu_fc1", 2],
      :orgasm_word => ["[Gigi]\nこの儂を、辱めおって……はぅぅぅ。", "namazu_fc1", 2],
      :predation_word => ["[Gigi]\nおい、儂の肉は不味いぞ……！\nひゃぁぁぁぁ！！", "namazu_fc1", 2],
      :incontinence_word => ["[Gigi]\nこの儂が、人前で失禁してしまうとは……", "namazu_fc1", 2],
    },
    100 => { # フレシア
      :dead_word => ["[Fleesia]\nそんな……私が……", "rahure_fc1", 2],
      :orgasm_word => ["[Fleesia]\nああ、気持ちいい……", "rahure_fc1", 2],
      :predation_word => ["[Fleesia]\n食べるなら、花びらだけにして……\nあ、あぁぁぁ……！", "rahure_fc1", 2],
      :incontinence_word => ["[Fleesia]\nどっぷりと漏れちゃう……\nきっと、すごい匂い……", "rahure_fc1", 2],
    },
    101 => { # リヒティーヌ
      :dead_word => ["[Lihitinu]\n走りだけじゃ、どうにもならないか……", "cent2_fc1", 2],
      :orgasm_word => ["[Lihitinu]\nああ、みんなの前でイかされちゃう……", "cent2_fc1", 2],
      :predation_word => ["[Lihitinu]\nお願い、食べないでぇ……\nきゃぁぁぁぁ！", "cent2_fc1", 2],
      :incontinence_word => ["[Lihitinu]\nああ、みんなの前で漏らしちゃう……", "cent2_fc1", 2],
    },
    102 => { # きつね
      :dead_word => ["[Kitsu]\nひゃぁぁぁぁ……！", "youko_fc1", 2],
      :orgasm_word => ["[Kitsu]\nひゃぁぁ、気持ちいいよぉ……", "youko_fc1", 2],
      :predation_word => ["[Kitsu]\n食べないで、あぶらあげあげるから……\nひゃぁぁぁぁ！", "youko_fc1", 2],
      :incontinence_word => ["[Kitsu]\nオモラシしちゃうよぉ……\nうぇ～ん……", "youko_fc1", 2],
    },
    103 => { # かむろ
      :dead_word => ["[Kamuro]\n駄目です、少し休みます……", "kamuro_fc1", 2],
      :orgasm_word => ["[Kamuro]\nこ、こんなのぉ……はぅぅぅ……", "kamuro_fc1", 2],
      :predation_word => ["[Kamuro]\nた、食べられるのやだ……\nあぁぁぁぁ……", "kamuro_fc1", 2],
      :incontinence_word => ["[Kamuro]\nごめんなさい、オモラシしちゃいます……\nはぅぅ……ごめん、なさい……", "kamuro_fc1", 2],
    },
    104 => { # ラクネ
      :dead_word => ["[Rachnee]\nそんな、私がやられるなんて……！", "kumo_fc1", 2],
      :orgasm_word => ["[Rachnee]\nイかされるなんて……屈辱……！", "kumo_fc1", 2],
      :predation_word => ["[Rachnee]\n食べられるの？　嘘でしょ、この私が……？", "kumo_fc1", 2],
      :incontinence_word => ["[Rachnee]\nも、漏れちゃう……はぅぅぅ……", "kumo_fc1", 2],
    },
    105 => { # ミネリ
      :dead_word => ["[Minelli]\nひ、ひどい……！", "mimic_fc1", 1],
      :orgasm_word => ["[Minelli]\nやだ、だめぇ……", "mimic_fc1", 1],
      :predation_word => ["[Minelli]\nた、食べないで！\nお願い、何でもするからぁ……きゃぁぁ！", "mimic_fc1", 1],
      :incontinence_word => ["[Minelli]\nも、漏らしちゃう……\n箱の中なら、いいよね……", "mimic_fc1", 1],
    },
    106 => { # 七尾
      :dead_word => ["[Nanabi]\nくっ、不覚を取りましたか……", "nanabi_fc1", 3],
      :orgasm_word => ["[Nanabi]\nこの私が、なんたる屈辱……", "nanabi_fc1", 3],
      :predation_word => ["[Nanabi]\nこの七尾、他者の餌食になるとは……！", "nanabi_fc1", 3],
      :incontinence_word => ["[Nanabi]\nわ、私が漏らすなんて……\nみ、見ないで下さい……", "nanabi_fc1", 3],
    },
    107 => { # ユメ
      :dead_word => ["[Yume]\nこんな、まさか……", "namako_fc1", 2],
      :orgasm_word => ["[Yume]\n気持ちいいけど、恥ずかしいわ……", "namako_fc1", 2],
      :predation_word => ["[Yume]\nゲテモノ食いなんて、感心しない……\nきゃぁぁぁぁ！", "namako_fc1", 2],
      :incontinence_word => ["[Yume]\n漏らしちゃうわ……あぁぁ……", "namako_fc1", 2],
    },
    108 => { # シェリー
      :dead_word => ["[Shelly]\nああ、こんな乱暴な……", "kai_fc1", 2],
      :orgasm_word => ["[Shelly]\n旦那様以外の方に、イかされてしまうなんて……", "kai_fc1", 2],
      :predation_word => ["[Shelly]\nどうか、食べないで……\nあぁぁぁぁ……！", "kai_fc1", 2],
      :incontinence_word => ["[Shelly]\n旦那様、こんな私の姿を見ないで……", "kai_fc1", 2],
    },
    109 => { # ソープ
      :dead_word => ["[Soapy]\nこんなの、やだよぉ……", "kani_fc1", 2],
      :orgasm_word => ["[Soapy]\n気持ちいいの、クセになっちゃうよぉ……", "kani_fc1", 2],
      :predation_word => ["[Soapy]\nた、食べないで……！\nやだ……あぁぁぁ！", "kani_fc1", 2],
      :incontinence_word => ["[Soapy]\nひ、人前でオシッコ漏らすなんて……\nやぁぁぁ……", "kani_fc1", 2],
    },
    110 => { # ベス
      :dead_word => ["[Beth]\nなんで、あたしがこんな目に合うのぉ……", "slimelord_fc1", 2],
      :orgasm_word => ["[Beth]\nぷるぷる、イっちゃうよぉ……", "slimelord_fc1", 2],
      :predation_word => ["[Beth]\n食べないで、食べないでよぉ……", "slimelord_fc1", 2],
      :incontinence_word => ["[Beth]\nもれちゃう、もれちゃうよぉ……", "slimelord_fc1", 2],
    },
    111 => { # メロン
      :dead_word => ["[Melon]\nあたしのスイカ、割れちゃった……", "suika_fc1", 2],
      :orgasm_word => ["[Melon]\nこんなの、悔しい……", "suika_fc1", 2],
      :predation_word => ["[Melon]\n食べるのならスイカだけにして！\n私は……あぁぁぁ！", "suika_fc1", 2],
      :incontinence_word => ["[Melon]\n漏らすところなんか、見ないでよぉ……", "suika_fc1", 2],
    },
    112 => { # かずら
      :dead_word => ["[Kazura]\nあたしがやられちゃうなんて……", "utubo_fc1", 2],
      :orgasm_word => ["[Kazura]\nこんなの、気持ち良すぎて……", "utubo_fc1", 2],
      :predation_word => ["[Kazura]\nあたしが逆に食べられるなんて……\nせめて、気持ち良く溶かして……", "utubo_fc1", 2],
      :incontinence_word => ["[Kazura]\n漏らしちゃうなんて……\n消化液まで漏れちゃう……", "utubo_fc1", 2],
    },
    113 => { # アナスタシア
      :dead_word => ["[Anastasia]\nそんな……この私が……", "lamia_fc1", 2],
      :orgasm_word => ["[Anastasia]\nこの私が、イかされるなんて……", "lamia_fc1", 2],
      :predation_word => ["[Anastasia]\nこの私が食べられるの……？\nそんな……あぁぁぁぁ！", "lamia_fc1", 2],
      :incontinence_word => ["[Anastasia]\nダメ、漏らしちゃう……\nあぁぁぁぁ……！", "lamia_fc1", 2],
    },
    114 => { # わかめ
      :dead_word => ["[Wakame]\nゆらり……ぱたん。", "wakame_fc1", 2],
      :orgasm_word => ["[Wakame]\nんんっ……ゆらゆらゆら……", "wakame_fc1", 2],
      :predation_word => ["[Wakame]\nあたし、美味しくないから……\nうそ、たぶん美味しいと思う……", "wakame_fc1", 2],
      :incontinence_word => ["[Wakame]\nゆらゆら……漏れちゃう……", "wakame_fc1", 2],
    },
    115 => { # くらげ
      :dead_word => ["[Kurage]\nもうだめ……", "kurage_fc1", 0],
      :orgasm_word => ["[Kurage]\nきもちいい……", "kurage_fc1", 0],
      :predation_word => ["[Kurage]\nたべないで……", "kurage_fc1", 0],
      :incontinence_word => ["[Kurage]\nもらしちゃった……", "kurage_fc1", 0],
    },
    116 => { # イザベル
      :dead_word => ["[Isabelle]\nきゃぁぁぁ……！", "iso_fc1", 2],
      :orgasm_word => ["[Isabelle]\n私がイかされるなんてぇ……！", "iso_fc1", 2],
      :predation_word => ["[Isabelle]\n私を食べるなんて、ただじゃおかないわ……！\nやだ、あぁぁぁぁ……！", "iso_fc1", 2],
      :incontinence_word => ["[Isabelle]\nくっ、私が漏らすなんて……\nだめ、あぁぁ……", "iso_fc1", 2],
    },
    117 => { # あんこ
      :dead_word => ["[Anko]\n……………………", "ankou_fc1", 0],
      :orgasm_word => ["[Anko]\n……………………", "ankou_fc1", 0],
      :predation_word => ["[Anko]\n……………………", "ankou_fc1", 0],
      :incontinence_word => ["[Anko]\n……………………", "ankou_fc1", 0],
    },
    118 => { # メイア
      :dead_word => ["[Meia]\nああ、こんな事って……", "meia_fc1", 3],
      :orgasm_word => ["[Meia]\n気持ちいい……\nでも、惨めです……", "meia_fc1", 3],
      :predation_word => ["[Meia]\nた、食べないで……きゃぁぁぁ！", "meia_fc1", 3],
      :incontinence_word => ["[Meia]\nひ、人前で漏らしてしまうなんて……\n恥ずかしいです……", "meia_fc1", 3],
    },
    119 => { # アニー
      :dead_word => ["[Annie]\n体が動かない……", "page17_fc1", 0],
      :orgasm_word => ["[Annie]\nこんな感覚……ん、んんん……", "page17_fc1", 0],
      :predation_word => ["[Annie]\n私が食べられるなんて……", "page17_fc1", 0],
      :incontinence_word => ["[Annie]\n私が漏らすなんて……", "page17_fc1", 0],
    },
    120 => { # ヨーコ
      :dead_word => ["[Yoko]\n少し休ませてもらいましょう……", "page257_fc1", 2],
      :orgasm_word => ["[Yoko]\nああ、こんな快感……\n私、もうダメです……", "page257_fc1", 2],
      :predation_word => ["[Yoko]\nた、食べないで……\nこんな、いや……あぁぁぁ……！", "page257_fc1", 2],
      :incontinence_word => ["[Yoko]\nこんな、恥ずかしい……\n見ないで、ください……", "page257_fc1", 2],
    },
    121 => { # コーネリア
      :dead_word => ["[Cornelia]\nこの私が、こんな屈辱を……", "page65537_fc1", 2],
      :orgasm_word => ["[Cornelia]\nこの体、快楽に反応させられるなんて……", "page65537_fc1", 2],
      :predation_word => ["[Cornelia]\n私が、食べられるなんて……！\nお、覚えておくのですね……きゃぁぁ！", "page65537_fc1", 2],
      :incontinence_word => ["[Cornelia]\nみ、見ないで……！\nこんな、屈辱……！", "page65537_fc1", 2],
    },
    122 => { # ソフィア
      :dead_word => ["[Sofia]\nああ、こんな……申し訳ありません……", "sisterlamia_fc1", 2],
      :orgasm_word => ["[Sofia]\n神よ、このような快感を……\nあぁぁぁ……！", "sisterlamia_fc1", 2],
      :predation_word => ["[Sofia]\nこんな、私が糧となるなんて……\nきゃぁぁ！", "sisterlamia_fc1", 2],
      :incontinence_word => ["[Sofia]\nああ、こんな恥ずかしい事を……\n神よ、私をお許し下さい……", "sisterlamia_fc1", 2],
    },
    123 => { # シス
      :dead_word => ["[Christie]\nああ、なんという事でしょう……", "sisccubus_fc1", 2],
      :orgasm_word => ["[Christie]\n体が悦んでしまう……\n神よ、罪深き私をお許しを……", "sisccubus_fc1", 2],
      :predation_word => ["[Christie]\nやめて下さい、こんな……\nあぁぁぁぁ……！", "sisccubus_fc1", 2],
      :incontinence_word => ["[Christie]\nああ……こんな姿、見られてしまうなんて……", "sisccubus_fc1", 2],
    },
    124 => { # 杏奈
      :dead_word => ["[Kyona]\nもう戦えない……ばたっ。", "arikui_fc1", 2],
      :orgasm_word => ["[Kyona]\nダメ、感じすぎ……あぁぁぁ！", "arikui_fc1", 2],
      :predation_word => ["[Kyona]\nた、食べないでぇ……！\nいやぁぁぁぁ！", "arikui_fc1", 2],
      :incontinence_word => ["[Kyona]\nちょっとぉ、見ないでよぉ……\nだめぇぇぇぇ……", "arikui_fc1", 2],
    },
    125 => { # アイシャ
      :dead_word => ["[Aisha]\nうがが……もう戦えないぞ……", "grizzly_fc1", 2],
      :orgasm_word => ["[Aisha]\nはぅぅ……こんな感覚、初めてだぞ……", "grizzly_fc1", 2],
      :predation_word => ["[Aisha]\nあたしを食べるなんて……！", "grizzly_fc1", 2],
      :incontinence_word => ["[Aisha]\n恥ずかしいから……見ないでほしいぞ……", "grizzly_fc1", 2],
    },
    126 => { # ロビン
      :dead_word => ["[Robin]\n体が……動かない……", "XX-7_fc1", 0],
      :orgasm_word => ["[Robin]\n私が……感じさせられるなんて……", "XX-7_fc1", 0],
      :predation_word => ["[Robin]\n私が……食べられるなんて……", "XX-7_fc1", 0],
      :incontinence_word => ["[Robin]\n私が……漏らすなんて……", "XX-7_fc1", 0],
    },
    127 => { # リッピー
      :dead_word => ["[Lippy]\nアタシ、もうだめなのか……", "littlebug_fc1", 2],
      :orgasm_word => ["[Lippy]\nこんな、気持ちいいぞ……", "littlebug_fc1", 3],
      :predation_word => ["[Lippy]\nアタシを食べるのか！？\nやだ、やだぁ……", "littlebug_fc1", 2],
      :incontinence_word => ["[Lippy]\nアタシが漏らすなんて……\nはふぅぅ……", "littlebug_fc1", 3],
    },
    128 => { # ジリアン
      :dead_word => ["[Jillian]\nくっ、体が動かない……", "kaniloid_fc1", 2],
      :orgasm_word => ["[Jillian]\nこんな快感……\nあぁぁぁ……", "kaniloid_fc1", 2],
      :predation_word => ["[Jillian]\n私が食べられるなんて……こんな……\nあぁぁぁぁぁ！", "kaniloid_fc1", 2],
      :incontinence_word => ["[Jillian]\n体液が……漏れ出てしまう……", "kaniloid_fc1", 2],
    },
    129 => { # ヒルデ
      :dead_word => ["[Hild]\n私の体……動かない……", "brunhild_fc1", 2],
      :orgasm_word => ["[Hild]\nこれ、だめ……体が変になる……！", "brunhild_fc1", 4],
      :predation_word => ["[Hild]\n私、食べられるの？\nこんなの、イヤ……", "brunhild_fc1", 2],
      :incontinence_word => ["[Hild]\nなにか漏れちゃう……\n不思議、でも気持ちいい……", "brunhild_fc1", 4],
    },
    130 => { # キャリー
      :dead_word => ["[Carrie]\nまた、死んでしまうの……？", "ghost_fc1", 0],
      :orgasm_word => ["[Carrie]\n気持ちいい……でも、いやだ……", "ghost_fc1", 0],
      :predation_word => ["[Carrie]\n幽霊を……食べるなんて……", "ghost_fc1", 0],
      :incontinence_word => ["[Carrie]\n幽霊でも……漏らすのね……", "ghost_fc1", 0],
    },
    131 => { # みやび
      :dead_word => ["[Miyabi]\nあそびたい……もっと……", "doll_fc1", 2],
      :orgasm_word => ["[Miyabi]\n変なかんじ……からだが、おかしくなる……", "doll_fc1", 2],
      :predation_word => ["[Miyabi]\nたべないで……いやだ……", "doll_fc1", 2],
      :incontinence_word => ["[Miyabi]\nもらしちゃう……ごめんなさい……", "doll_fc1", 2],
    },
    132 => { # エリィ
      :dead_word => ["[Ellie]\nぁぁぁ……", "zonbe_fc2", 0],
      :orgasm_word => ["[Ellie]\nはぅぅ、あぁぁ……", "zonbe_fc2", 0],
      :predation_word => ["[Ellie]\nあぐ、うぅぅ……", "zonbe_fc2", 0],
      :incontinence_word => ["[Ellie]\nあ、あぁぁ……", "zonbe_fc2", 0],
    },
    133 => { # ゾンビーズ
      :dead_word => ["[Zombies]\nう……ぁぁ……", "zonbe_fc3", 3],
      :orgasm_word => ["[Zombies]\nはぅ、うぅぅ……", "zonbe_fc3", 3],
      :predation_word => ["[Zombies]\nあ……あぁぁ……", "zonbe_fc3", 3],
      :incontinence_word => ["[Zombies]\nうぁ……あ、あぁぁ……", "zonbe_fc3", 3],
    },
    134 => { # クロム
      :dead_word => ["[Chrome]\nもうダメなのじゃ……", "chrom_fc1", 6],
      :orgasm_word => ["[Chrome]\nだ、だめ……イっちゃうのじゃ……\nはぅぅぅぅ……", "chrom_fc1", 5],
      :predation_word => ["[Chrome]\nた、食べないでぇ……\nひゃぁぁぁぁ！", "chrom_fc1", 6],
      :incontinence_word => ["[Chrome]\nお、オモラシしちゃうのじゃ……\n恥ずかしい……あぁぁ……", "chrom_fc1", 6],
    },
    135 => { # フレデリカ
      :dead_word => ["[Frederika]\n体が、動かない……", "frederika_fc1", 2],
      :orgasm_word => ["[Frederika]\nこの感じ……体がおかしい……", "frederika_fc1", 1],
      :predation_word => ["[Frederika]\n私が……食べられるの……", "frederika_fc1", 2],
      :incontinence_word => ["[Frederika]\n漏らしてしまう……", "frederika_fc1", 1],
    },
    136 => { # クローディア
      :dead_word => ["[Claudia]\nこれ以上、戦えないわ……", "elf_fc1", 2],
      :orgasm_word => ["[Claudia]\nああ、イっちゃう……\nイくところ、みんなに見られてるぅ……", "elf_fc1", 2],
      :predation_word => ["[Claudia]\nちょっと、食べるのはやめて……\n犯すのはいいから、食べるのは……あ、あぁぁ！", "elf_fc1", 2],
      :incontinence_word => ["[Claudia]\nやめてぇ……漏らしちゃうとこ、見ないでぇ……\nあぁぁぁぁ……", "elf_fc1", 2],
    },
    137 => { # ラブ＆ラム
      :dead_word => ["[Love & Lamb]\nおやすみ……", "braunys_fc2", 0],
      :orgasm_word => ["[Love & Lamb]\nイっちゃうよぉ……", "braunys_fc2", 0],
      :predation_word => ["[Love & Lamb]\nやだぁ！　食べないでよぉ……！", "braunys_fc2", 0],
      :incontinence_word => ["[Love & Lamb]\nオモラシ、しちゃう……", "braunys_fc2", 0],
    },
    138 => { # ミル＆リル
      :dead_word => ["[Milly & Liru]\nうわ～", "tfairy_fc1", 2],
      :orgasm_word => ["[Milly & Liru]\nだめ、イっちゃうよぉ……", "tfairy_fc1", 2],
      :predation_word => ["[Milly & Liru]\n食べられるの、やだ～！", "tfairy_fc1", 2],
      :incontinence_word => ["[Milly & Liru]\n漏らしちゃうよぉ……", "tfairy_fc1", 2],
    },
    139 => { # フェアリーズ
      :dead_word => ["[Fairies]\nうわ～", "fairys_fc1", 3],
      :orgasm_word => ["[Fairies]\nわ～ん、気持ちいいよぉ～", "fairys_fc1", 3],
      :predation_word => ["[Fairies]\n食べられちゃうよ～", "fairys_fc1", 3],
      :incontinence_word => ["[Fairies]\n漏らしちゃうよ～", "fairys_fc1", 3],
    },
    140 => { # ラチュラ
      :dead_word => ["[Rachura]\nそんな、私がこんな所で……！", "taran_fc1", 2],
      :orgasm_word => ["[Rachura]\n私、イかされちゃうの……？", "taran_fc1", 2],
      :predation_word => ["[Rachura]\n嫌だ、私が食べられるなんて……", "taran_fc1", 2],
      :incontinence_word => ["[Rachura]\nああ、漏らしちゃう……", "taran_fc1", 2],
    },
    141 => { # ミナ
      :dead_word => ["[Mina]\nくっ、やりやがる……！", "mino_fc1", 2],
      :orgasm_word => ["[Mina]\nやめろぉ……\nあたしがイくとこ、見るなよぉ……", "mino_fc1", 2],
      :predation_word => ["[Mina]\nた、食べるな……このぉ！\nいやだぁ、あぁぁぁぁ……！", "mino_fc1", 2],
      :incontinence_word => ["[Mina]\nやめろぉ……\nあたしが漏らすとこ、見るなよぉ……", "mino_fc1", 2],
    },
    142 => { # バナッチ
      :dead_word => ["[Banachi]\nくっ、無念……", "bander_fc1", 2],
      :orgasm_word => ["[Banachi]\nこんな、私が……あぁぁ……", "bander_fc1", 2],
      :predation_word => ["[Banachi]\nやめろ……ぐっ……！\nあぁぁぁ……", "bander_fc1", 2],
      :incontinence_word => ["[Banachi]\n私が漏らすだと？\nそんな……ぐぅぅ……", "bander_fc1", 2],
    },
    143 => { # エヴァ
      :dead_word => ["[Eva]\nなんで、私が……！\n私ばっかり、こんな……！", "eva_fc1", 2],
      :orgasm_word => ["[Eva]\nサキュバスなのにぃ……\nイかされるなんて、恥ずかしいよぉ……", "eva_fc1", 2],
      :predation_word => ["[Eva]\nやめて、食べるなら別のヒトを……\nいやぁぁぁぁ……！", "eva_fc1", 2],
      :incontinence_word => ["[Eva]\n見ないで！　見ないでよぉ……\nうぅぅっ……", "eva_fc1", 2],
    },
    144 => { # サニー
      :dead_word => ["[Sunny]\nちょっと、ひどいじゃない……", "saboresu_fc1", 2],
      :orgasm_word => ["[Sunny]\nこんなの、感じすぎちゃうよ……", "saboresu_fc1", 2],
      :predation_word => ["[Sunny]\nた、食べないで……きゃぁっ！", "saboresu_fc1", 2],
      :incontinence_word => ["[Sunny]\nごめん、漏らしちゃった……", "saboresu_fc1", 2],
    },
    145 => { # ヴァネッサ
      :dead_word => ["[Vanessa]\n私の甲殻が役に立たないなんて……", "mukade_fc1", 2],
      :orgasm_word => ["[Vanessa]\nどれだけ固くても、快楽は防げないわ……", "mukade_fc1", 2],
      :predation_word => ["[Vanessa]\n私の不味さは有名よ……\nだから、やめて……あぁぁぁ！", "mukade_fc1", 2],
      :incontinence_word => ["[Vanessa]\nああ、漏らしちゃう……", "mukade_fc1", 2],
    },
    146 => { # スカーレット
      :dead_word => ["[Scarlet]\nまさか、私が……！", "sasori_fc1", 2],
      :orgasm_word => ["[Scarlet]\n砂漠で、こんな気持ちいいコトなかったわ……", "sasori_fc1", 2],
      :predation_word => ["[Scarlet]\n私なんて、肉があんまりないのに……\nきゃぁぁ！", "sasori_fc1", 2],
      :incontinence_word => ["[Scarlet]\nくっ、なんて屈辱……", "sasori_fc1", 2],
    },
    147 => { # キャスタ
      :dead_word => ["[Casta]\nああ、少し休ませてもらいますわ……", "saboten_fc1", 2],
      :orgasm_word => ["[Casta]\nこんなに気持ちいいこと、今まで……\nあ、あぁぁぁ……", "saboten_fc1", 2],
      :predation_word => ["[Casta]\n私を食べると痛いですわ……\nだから……きゃぁぁ！", "saboten_fc1", 2],
      :incontinence_word => ["[Casta]\nやめて、こちらを見ないで……\nあぁぁぁぁ……", "saboten_fc1", 2],
    },
    148 => { # ミュー
      :dead_word => ["[Miu]\nもうあたし、走れません……", "datyou_fc1", 2],
      :orgasm_word => ["[Miu]\n気持ちいいの、もうやだぁ……", "datyou_fc1", 2],
      :predation_word => ["[Miu]\n食べないで下さい……\nあ、やぁぁぁぁ！", "datyou_fc1", 2],
      :incontinence_word => ["[Miu]\n漏らすところ、見られちゃうなんて……", "datyou_fc1", 2],
    },
    149 => { # ジーニー
      :dead_word => ["[Jeannie]\n少しランプの中に戻るとしましょう……", "lamp_fc1", 2],
      :orgasm_word => ["[Jeannie]\nこんな、私が絶頂するなんて……", "lamp_fc1", 2],
      :predation_word => ["[Jeannie]\nこの私を喰らうなど……\nそんな……きゃぁっ！", "lamp_fc1", 2],
      :incontinence_word => ["[Jeannie]\n私が漏らすところなど……\n見ないで……はぅぅぅ……", "lamp_fc1", 2],
    },
    150 => { # パトラ
      :dead_word => ["[Patra]\n我は……少し眠るぞ……", "mummy_fc1", 2],
      :orgasm_word => ["[Patra]\nこんな……我が女の本能が……", "mummy_fc1", 2],
      :predation_word => ["[Patra]\n我を喰らうなど……\n美味くもないぞ……", "mummy_fc1", 2],
      :incontinence_word => ["[Patra]\n我にこんな水分が残っていたか……", "mummy_fc1", 2],
    },
    151 => { # ライラ
      :dead_word => ["[Lila]\nこの私が、不覚を取るなんて……！", "kobura_fc1", 2],
      :orgasm_word => ["[Lila]\n私がイカされるなんて……はぅぅ……", "kobura_fc1", 2],
      :predation_word => ["[Lila]\n私が食べられるなんて、許さないわ……\nきゃぁぁ！", "kobura_fc1", 2],
      :incontinence_word => ["[Lila]\nこんなところで尿を垂れ流すなんて……", "kobura_fc1", 2],
    },
    152 => { # ネフェルラミアス
      :dead_word => ["[Nefertiti Lamias]\nきゃぁっ……！", "lamias_fc2", 4],
      :orgasm_word => ["[Nefertiti Lamias]\nだめ、イっちゃう……！", "lamias_fc2", 4],
      :predation_word => ["[Nefertiti Lamias]\n食べないで……\n私はいいから、妹たちは……", "lamias_fc2", 4],
      :incontinence_word => ["[Nefertiti Lamias]\nだめ、漏れちゃう……", "lamias_fc2", 4],
    },
    153 => { # スフィンクス
      :dead_word => ["[Sphinx]\nこの妾が……なんという屈辱……", "sphinx_fc1", 2],
      :orgasm_word => ["[Sphinx]\nこのような快感、何百年ぶりか……", "sphinx_fc1", 2],
      :predation_word => ["[Sphinx]\n妾が、食べられるとは……", "sphinx_fc1", 2],
      :incontinence_word => ["[Sphinx]\n妾が、このような惨めな姿をさらすとは……", "sphinx_fc1", 2],
    },
    154 => { # ガー
      :dead_word => ["[Gaa]\nあたし……もうダメ……", "wani_fc1", 2],
      :orgasm_word => ["[Gaa]\nあたし……もうイっちゃう……", "wani_fc1", 2],
      :predation_word => ["[Gaa]\nあたしが食べられるの……？", "wani_fc1", 2],
      :incontinence_word => ["[Gaa]\nあたし、漏らしちゃう……", "wani_fc1", 2],
    },
    155 => { # サキ
      :dead_word => ["[Saki]\nファンのみんな、先に逝ってるね……", "saki_fc1", 2],
      :orgasm_word => ["[Saki]\nこんな姿、ファンには見せられないよぉ……", "saki_fc1", 2],
      :predation_word => ["[Saki]\nあたし、食べられちゃうの？\nやだ、やだよぉ……", "saki_fc1", 2],
      :incontinence_word => ["[Saki]\nだめ、漏れちゃう……\nファンは喜んでくれる？　幻滅される……？", "saki_fc1", 2],
    },
    156 => { # レジーナ
      :dead_word => ["[Regina]\nこれも、戦士の掟よね……", "d_fighter_fc1", 0],
      :orgasm_word => ["[Regina]\nイっちゃう……恥ずかしいよぉ……", "d_fighter_fc1", 2],
      :predation_word => ["[Regina]\n食べないでぇ……やだよぉ……\nきゃぁぁぁ！", "d_fighter_fc1", 0],
      :incontinence_word => ["[Regina]\n漏らしちゃう……見ないでぇ……", "d_fighter_fc1", 2],
    },
    157 => { # アシダカ
      :dead_word => ["[Ashidaka]\nうぐぐ……もう体が動かないよぉ……", "oogumo_fc1", 2],
      :orgasm_word => ["[Ashidaka]\nこんな、あたしがイかされるなんてぇ……", "oogumo_fc1", 2],
      :predation_word => ["[Ashidaka]\nた、食べないでよぉ……きゃぁぁ！", "oogumo_fc1", 2],
      :incontinence_word => ["[Ashidaka]\n漏らしちゃうよぉ……はぅぅ。", "oogumo_fc1", 2],
    },
    158 => { # アンナ
      :dead_word => ["[Anna]\n……………………", "suckvore_fc1", 2],
      :orgasm_word => ["[Anna]\n……………………", "suckvore_fc1", 2],
      :predation_word => ["[Anna]\n……………………", "suckvore_fc1", 2],
      :incontinence_word => ["[Anna]\n……………………", "suckvore_fc1", 2],
    },
    159 => { # メイデン
      :dead_word => ["[Maiden]\n……………………", "ironmaiden_fc1", 0],
      :orgasm_word => ["[Maiden]\n……………………", "ironmaiden_fc1", 0],
      :predation_word => ["[Maiden]\n……………………", "ironmaiden_fc1", 0],
      :incontinence_word => ["[Maiden]\n……………………", "ironmaiden_fc1", 0],
    },
    160 => { # ユリア
      :dead_word => ["[Julia]\nもうだめ……もっと力を……", "wormv_fc1", 2],
      :orgasm_word => ["[Julia]\nきもちいい……もっと……", "wormv_fc1", 2],
      :predation_word => ["[Julia]\n食べられるの……\nそんなの、嫌よ……あぁぁ……", "wormv_fc1", 2],
      :incontinence_word => ["[Julia]\n漏らすのも、気持ちいいけど……", "wormv_fc1", 2],
    },
    161 => { # レモン
      :dead_word => ["[Lemon]\n少し休むわね、ふぅ……", "ustrel_fc1", 2],
      :orgasm_word => ["[Lemon]\nイかされちゃうの……？\nだめ、そんな……あぅぅ……", "ustrel_fc1", 2],
      :predation_word => ["[Lemon]\nた、食べるのだけはやめて……！\nきゃぁぁぁ！", "ustrel_fc1", 2],
      :incontinence_word => ["[Lemon]\nこんなところでオシッコしちゃうなんて……", "ustrel_fc1", 2],
    },
    162 => { # 蜜壺
      :dead_word => ["[Mitsuko]\n壺に引きこもっていたらよかったわ……", "mitutubo_fc1", 2],
      :orgasm_word => ["[Mitsuko]\nああ、こんな……壺の中、もうドロドロ……", "mitutubo_fc1", 2],
      :predation_word => ["[Mitsuko]\nちょっと、壺ごと食べるなんて……！", "mitutubo_fc1", 2],
      :incontinence_word => ["[Mitsuko]\n壺の中に、漏らしていい……？", "mitutubo_fc1", 2],
    },
    163 => { # リリィ
      :dead_word => ["[Lily]\nこんなところで、また地を這うの……？", "lily_fc1", 6],
      :orgasm_word => ["[Lily]\nこの私が、こんな屈辱……！\nあぁぁぁぁ……！", "lily_fc1", 6],
      :predation_word => ["[Lily]\nふん、好きにすればいいわ……", "lily_fc1", 5],
      :incontinence_word => ["[Lily]\nこんな屈辱、絶対に許さないわ……！\n絶対に……絶対に……！", "lily_fc1", 6],
    },
    164 => { # 雫
      :dead_word => ["[Shizuku]\nもう無理、ちょっと休ませてよ……", "kooni_fc1", 2],
      :orgasm_word => ["[Shizuku]\nこんなのヒキョーだよ、あぅぅぅん……", "kooni_fc1", 2],
      :predation_word => ["[Shizuku]\nちょっと、嘘でしょ……？\n食べられるの嫌ぁぁぁ！", "kooni_fc1", 2],
      :incontinence_word => ["[Shizuku]\nこんなの……恥ずかしいよぉ……", "kooni_fc1", 2],
    },
    165 => { # ナホ
      :dead_word => ["[Naho]\nもう戦えませんよぉ……", "onaho_fc1", 2],
      :orgasm_word => ["[Naho]\nあたしがイかされるなんて、おかしいです……", "onaho_fc1", 2],
      :predation_word => ["[Naho]\nぷにょぷにょやわらかだけど、おいしくないですよぉ……", "onaho_fc1", 2],
      :incontinence_word => ["[Naho]\nああ、漏らしちゃいますよぉ……", "onaho_fc1", 2],
    },
    166 => { # ナビス
      :dead_word => ["[Nabisu]\nまだまだ、お仕事しなくちゃいけないのに……", "narcubus_fc1", 2],
      :orgasm_word => ["[Nabisu]\nはぅぅ、こんなぁ……\nあたし、イっちゃいます……", "narcubus_fc1", 2],
      :predation_word => ["[Nabisu]\n食べられるのは嫌ですよぉ……", "narcubus_fc1", 2],
      :incontinence_word => ["[Nabisu]\nあたし、いけない看護婦さんです……\nオモラシしちゃうなんて……", "narcubus_fc1", 2],
    },
    167 => { # ルシア
      :dead_word => ["[Lucia]\n私の力が、通じないなんて……", "lusia_fc1", 2],
      :orgasm_word => ["[Lucia]\nこんな屈辱……！\n覚えておきなさい……！", "lusia_fc1", 2],
      :predation_word => ["[Lucia]\n私を食べるなんて……そんな……", "lusia_fc1", 2],
      :incontinence_word => ["[Lucia]\nこ、こんな姿をさらすなんて……", "lusia_fc1", 2],
    },
    168 => { # まなこ
      :dead_word => ["[Manako]\nちょっと休ませてよね……", "dodome_fc1", 2],
      :orgasm_word => ["[Manako]\n私がイかされるの……\nあ、あぁぁぁ……！", "dodome_fc1", 2],
      :predation_word => ["[Manako]\n食べないで、食べないでよぉ……", "dodome_fc1", 2],
      :incontinence_word => ["[Manako]\n漏らしちゃうなんて、やだぁ……", "dodome_fc1", 2],
    },
    169 => { # リル
      :dead_word => ["[Liru]\nあたしが負けるなんて……！", "lizardthief_fc1", 2],
      :orgasm_word => ["[Liru]\nくそっ、こんな奴にイかされるなんてぇ……\nはぅぅぅぅ……", "lizardthief_fc1", 2],
      :predation_word => ["[Liru]\nやめろ、食うなぁ……！\nぎゃぁぁ！", "lizardthief_fc1", 2],
      :incontinence_word => ["[Liru]\nくそっ、あたしが漏らしちまうなんて……", "lizardthief_fc1", 2],
    },
    170 => { # レン
      :dead_word => ["[Len]\n私の方が弱かったようですね……", "lizardthief_fc2", 2],
      :orgasm_word => ["[Len]\nイかされるなんて、こんな屈辱……\nあぁぁぁぁ……", "lizardthief_fc2", 2],
      :predation_word => ["[Len]\nどうか、食べるのはやめて……\nきゃぁぁぁ！", "lizardthief_fc2", 2],
      :incontinence_word => ["[Len]\nこんなところで漏らすなんて……", "lizardthief_fc2", 2],
    },
    171 => { # ミランダ
      :dead_word => ["[Miranda]\nくっ、不覚を取っちまったか……！", "lizardboss_fc1", 2],
      :orgasm_word => ["[Miranda]\n畜生、このあたしが……\nあぁぁぁぁぁ……！", "lizardboss_fc1", 5],
      :predation_word => ["[Miranda]\nあたしを食べるだなんて、そんな事……！\nあぁぁぁぁぁ！", "lizardboss_fc1", 2],
      :incontinence_word => ["[Miranda]\nくそっ、見るんじゃないよ……\nあっ、ダメ……漏れる……", "lizardboss_fc1", 5],
    },
    172 => { # ミラージュ
      :dead_word => ["[Mirage]\nばたんきゅう……", "sinkiro_fc1", 3],
      :orgasm_word => ["[Mirage]\n蜃気楼なのに、イっちゃうなんて……", "sinkiro_fc1", 2],
      :predation_word => ["[Mirage]\n蜃気楼を食べたって美味しくないです……\nひゃぁぁぁ！", "sinkiro_fc1", 3],
      :incontinence_word => ["[Mirage]\nも、漏れちゃいます……\nやだぁ、こんなの……", "sinkiro_fc1", 2],
    },
    173 => { # ヘレン
      :dead_word => ["[Helen]\nくっ……獲物のくせに……！", "arizigoku_fc1", 2],
      :orgasm_word => ["[Helen]\nやだ、イかされるなんて……", "arizigoku_fc1", 2],
      :predation_word => ["[Helen]\nあたしを食べるなんて、いい根性ね……！", "arizigoku_fc1", 2],
      :incontinence_word => ["[Helen]\nあたしが漏らすなんて……", "arizigoku_fc1", 2],
    },
    174 => { # ダリア
      :dead_word => ["[Dahlia]\nいたい……", "sandw_fc1", 2],
      :orgasm_word => ["[Dahlia]\nきもちいい……", "sandw_fc1", 2],
      :predation_word => ["[Dahlia]\nたべられるなんて……", "sandw_fc1", 2],
      :incontinence_word => ["[Dahlia]\nもらしちゃう……\nおぼれないようにしてね……", "sandw_fc1", 2],
    },
    175 => { # ディジィ
      :dead_word => ["[Deiji]\nこんなの、やだー！", "d_scylla_fc1", 2],
      :orgasm_word => ["[Deiji]\nやだぁ、イっちゃうよぉ……！", "d_scylla_fc1", 2],
      :predation_word => ["[Deiji]\n食べられるの、やだぁ……！", "d_scylla_fc1", 2],
      :incontinence_word => ["[Deiji]\nオモラシするの、やだぁ……", "d_scylla_fc1", 2],
    },
    176 => { # ヴィタエ
      :dead_word => ["[Vitae]\nここで果てますか、無念です……", "vitae_fc1", 2],
      :orgasm_word => ["[Vitae]\nこの私が、絶頂してしまうなんて……", "vitae_fc1", 2],
      :predation_word => ["[Vitae]\nこの私が、捕食されてしまうなんて……", "vitae_fc1", 2],
      :incontinence_word => ["[Vitae]\nああ、体液が漏れ出して……", "vitae_fc1", 2],
    },
    177 => { # ヴェータラ
      :dead_word => ["[Vetala]\n腹が立つわねぇ、こんな扱い……", "vetala_fc1", 2],
      :orgasm_word => ["[Vetala]\nああ、感じちゃうわぁ……", "vetala_fc1", 2],
      :predation_word => ["[Vetala]\nこの私が、食べられる側なんて……", "vetala_fc1", 2],
      :incontinence_word => ["[Vetala]\n屈辱、惨め……こんな……", "vetala_fc1", 2],
    },
    178 => { # ヴァルト
      :dead_word => ["[Valto]\n各部、機関停止……", "valt_fc1", 2],
      :orgasm_word => ["[Valto]\n快楽、耐久不可能……", "valt_fc1", 2],
      :predation_word => ["[Valto]\n捕食される……", "valt_fc1", 2],
      :incontinence_word => ["[Valto]\n尿液、排出……", "valt_fc1", 2],
    },
    179 => { # シニファ
      :dead_word => ["[Shinifa]\nあははは……", "sinifa_fc1", 2],
      :orgasm_word => ["[Shinifa]\nフフ、ハハハー！", "sinifa_fc1", 3],
      :predation_word => ["[Shinifa]\nひぁ、はははははは……！", "sinifa_fc1", 2],
      :incontinence_word => ["[Shinifa]\nはふ、はははぁ……", "sinifa_fc1", 3],
    },
    180 => { # シャドー
      :dead_word => ["[Shadow]\n影の世界に……戻る……", "shadow_fc1", 0],
      :orgasm_word => ["[Shadow]\n絶頂……する……", "shadow_fc1", 0],
      :predation_word => ["[Shadow]\n影が……捕食されるなんて……", "shadow_fc1", 0],
      :incontinence_word => ["[Shadow]\n尿が……漏れ出る……", "shadow_fc1", 0],
    },
    181 => { # リザ
      :dead_word => ["[Lisa]\n私の力が……失われていく……", "gaistvine_fc1", 1],
      :orgasm_word => ["[Lisa]\nああ、気持ちいい……", "gaistvine_fc1", 1],
      :predation_word => ["[Lisa]\n食べられるのは嫌……", "gaistvine_fc1", 1],
      :incontinence_word => ["[Lisa]\n漏らすなんて、嫌……", "gaistvine_fc1", 1],
    },
    182 => { # クロウリー
      :dead_word => ["[Crowley]\n私の……力……", "c_homunculus_fc1", 2],
      :orgasm_word => ["[Crowley]\nこの快楽……耐えきれない……", "c_homunculus_fc1", 2],
      :predation_word => ["[Crowley]\n私が……捕食されるなんて……", "c_homunculus_fc1", 2],
      :incontinence_word => ["[Crowley]\n私が……尿を垂れ流すなんて……", "c_homunculus_fc1", 2],
    },
    183 => { # トーチャ
      :dead_word => ["[Torture]\n罪人を……処分……", "ironmaiden_k_fc1", 2],
      :orgasm_word => ["[Torture]\nこの快楽……私も、罪人……", "ironmaiden_k_fc1", 2],
      :predation_word => ["[Torture]\n私が……捕食されるなど……", "ironmaiden_k_fc1", 2],
      :incontinence_word => ["[Torture]\n私が……失禁するなど……", "ironmaiden_k_fc1", 2],
    },
    184 => { # フランチェスカ
      :dead_word => ["[Francesca]\nこんな……ジャンクになっちゃう……", "junkdoll_fc2", 1],
      :orgasm_word => ["[Francesca]\nああ……感じちゃうよぉ……", "junkdoll_fc2", 1],
      :predation_word => ["[Francesca]\n人形を食べるなんて……\nへ、変態……！", "junkdoll_fc2", 1],
      :incontinence_word => ["[Francesca]\nなんでこんな機能あるのよぉ……", "junkdoll_fc2", 1],
    },
    185 => { # ラディオ
      :dead_word => ["[Radio]\n機能停止シマす……", "radio_fc1", 0],
      :orgasm_word => ["[Radio]\nこんな機能ガ、私にも……", "radio_fc1", 0],
      :predation_word => ["[Radio]\n私は美味しクアリません……\nボディに味付けは施されてオリマせん……", "radio_fc1", 0],
      :incontinence_word => ["[Radio]\n体液が漏れテイマす……\nこれは、イッタい……", "radio_fc1", 0],
    },
    525 => { # ソニア
      :dead_word => ["[Sonya]\nごめんね、ルカ……", "sonia_fc2", 2],
      :orgasm_word => ["[Sonya]\nだめ、だめぇ……\nこんなの、イっちゃうよぉぉ……", "sonia_fc2", 0],
      :predation_word => ["[Sonya]\nやだ、やだ、やだよぉ……\nきゃぁぁぁ！", "sonia_fc3", 7],
      :incontinence_word => ["[Sonya]\nだめ、だめぇ……\nルカ、見ないでよぉ……", "sonia_fc2", 0],
    },
    529 => { # サラ
      :dead_word => ["[Sara]\nごめんなさい、お父様……", "sara_fc1", 4],
      :orgasm_word => ["[Sara]\nやだ、こんな辱め……\nあ、あぁぁぁぁ……！", "sara_fc1", 4],
      :predation_word => ["[Sara]\nた、食べないで……\nあぁぁぁぁ……！", "sara_fc1", 4],
      :incontinence_word => ["[Sara]\nやだよぉ、こんな人前で……\nはぅぅ……もうお嫁に行けない……", "sara_fc1", 4],
    },
    530 => { # サラ
      :dead_word => ["[Sara]\nああ……力が入らない……", "sara_fc4", 2],
      :orgasm_word => ["[Sara]\n気持ちいい……けど、屈辱……", "sara_fc4", 2],
      :predation_word => ["[Sara]\nあたし、食べられるの……？", "sara_fc4", 2],
      :incontinence_word => ["[Sara]\nああ、漏らしちゃう……\nオシッコ、いっぱい出ちゃう……", "sara_fc4", 2],
    },
    531 => { # サン・イリア王
      :dead_word => ["[King of San Ilia]\n機能停止……\nおお神よ、いま御許へ……", "saniria_fc2", 0],
      :predation_word => ["[King of San Ilia]\nやめた方が良い、私の体は胃もたれするぞ……", "saniria_fc2", 0],
    },
    533 => { # グランドノア女王
      :dead_word => ["[Queen of Grand Noah]\nこんなところで、私の志が……", "grandnoa_fc1", 2],
      :orgasm_word => ["[Queen of Grand Noah]\nくっ……私が、こんな屈辱……", "grandnoa_fc1", 2],
      :predation_word => ["[Queen of Grand Noah]\n私はともかく、メダルは食べないで……", "grandnoa_fc1", 2],
      :incontinence_word => ["[Queen of Grand Noah]\nこの私が、人前で下着を濡らすなんて……", "grandnoa_fc1", 2],
    },
    540 => { # アミラ
      :dead_word => ["[Amira]\nウソみたいでしょ。\n死んでるのよ、私……", "amira_fc1", 1],
      :orgasm_word => ["[Amira]\n見て！　淫らな私を見て！", "amira_fc1", 2],
      :predation_word => ["[Amira]\nかわいいラミア♪　食われてゆ～く～よ♪\nかな～しそ～な……待って、まだ歌ってる最中！", "amira_fc1", 1],
      :incontinence_word => ["[Amira]\nらめぇ！　オモラシする私を見て！　見ないで！", "amira_fc1", 2],
    },
    541 => { # ピーハー
      :dead_word => ["[Pyhar]\nグェーッ", "piha_fc1", 0],
      :orgasm_word => ["[Pyhar]\nギョーッ", "piha_fc1", 0],
      :predation_word => ["[Pyhar]\nあたしは……おいしいわよ～♪\n……ホギャァァァァァァ！！", "piha_fc1", 0],
      :incontinence_word => ["[Pyhar]\nブシャァァァー！", "piha_fc1", 0],
    },
    542 => { # ドーメイマ
      :dead_word => ["[Domaimer]\nみ、水……", "domeima_fc1", 0],
      :orgasm_word => ["[Domaimer]\nびくびく……", "domeima_fc1", 0],
      :predation_word => ["[Domaimer]\n水……", "domeima_fc1", 0],
      :incontinence_word => ["[Domaimer]\nじょろろろ……", "domeima_fc1", 0],
    },
    544 => { # マリー
      :dead_word => ["[Marie]\n少し休ませてもらうわ……", "mob_maid_fc1", 0],
      :orgasm_word => ["[Marie]\n私が、イかされるなんて……", "mob_maid_fc1", 0],
      :predation_word => ["[Marie]\n覚悟はしていたわ……", "mob_maid_fc1", 0],
      :incontinence_word => ["[Marie]\nこんな……人前でなんて……", "mob_maid_fc1", 0],
    },
    545 => { # エリィ
      :dead_word => ["[Eri]\nすみません、もうダメです……", "mob_murabito1_fc1", 0],
      :orgasm_word => ["[Eri]\nああ……気持ちいいです……", "mob_murabito1_fc1", 0],
      :predation_word => ["[Eri]\nイ、イヤ……あぁぁっ！", "mob_murabito1_fc1", 0],
      :incontinence_word => ["[Eri]\nああっ、見ないで下さい……！", "mob_murabito1_fc1", 0],
    },
    546 => { # ステラ
      :dead_word => ["[Stella]\nどうせ、こういう運命だし……", "mob_hurou_fc1", 1],
      :orgasm_word => ["[Stella]\nああ、イっちゃう……", "mob_hurou_fc1", 1],
      :predation_word => ["[Stella]\nあなたは、これで満腹よね……", "mob_hurou_fc1", 1],
      :incontinence_word => ["[Stella]\n漏らしたからって……何よ……", "mob_hurou_fc1", 1],
    },
    547 => { # ドン・ダリア
      :dead_word => ["[Don Dahlia]\nくっ、覚えてやがれ……", "dondaria_fc1", 0],
      :orgasm_word => ["[Don Dahlia]\nヤキが回ったもんだ……", "dondaria_fc1", 0],
      :predation_word => ["[Don Dahlia]\nもう、好きなようにしやがれ……", "dondaria_fc1", 0],
      :incontinence_word => ["[Don Dahlia]\nこんな姿、見られちまうなんて……", "dondaria_fc1", 0],
    },
    548 => { # バニィちゃん
      :dead_word => ["[Bunny-chan]\n休んじゃいま～す♪", "mob_bunny1_fc1", 0],
      :orgasm_word => ["[Bunny-chan]\nイっちゃうよ～♪", "mob_bunny1_fc1", 0],
      :predation_word => ["[Bunny-chan]\n食べられちゃう～♪", "mob_bunny1_fc1", 0],
      :incontinence_word => ["[Bunny-chan]\nオモラシしちゃった～♪", "mob_bunny1_fc1", 0],
    },
    549 => { # ルイズ
      :dead_word => ["[Louise]\nこれで終わりかよ……", "mob_touzoku_fc1", 0],
      :orgasm_word => ["[Louise]\nはぅぅ……惨めだぜ……", "mob_touzoku_fc1", 0],
      :predation_word => ["[Louise]\nやめろ……あ。あぁぁっ！", "mob_touzoku_fc1", 0],
      :incontinence_word => ["[Louise]\nくそぉ……見るなよぉ……", "mob_touzoku_fc1", 0],
    },
    550 => { # メイリン
      :dead_word => ["[Mei-Lin]\nもう疲れたぁ……", "mob_kakutou_fc1", 0],
      :orgasm_word => ["[Mei-Lin]\nこんなの、初めてぇ……", "mob_kakutou_fc1", 0],
      :predation_word => ["[Mei-Lin]\nイ、イヤ……", "mob_kakutou_fc1", 0],
      :incontinence_word => ["[Mei-Lin]\n人前でなんてぇ……", "mob_kakutou_fc1", 0],
    },
    551 => { # ケイト
      :dead_word => ["[Kate]\n不甲斐ない身、お許しを……", "mob_maid1_fc1", 0],
      :orgasm_word => ["[Kate]\n快楽を味わってしまうなんて……", "mob_maid1_fc1", 0],
      :predation_word => ["[Kate]\nじっくりご賞味下さい……", "mob_maid1_fc1", 0],
      :incontinence_word => ["[Kate]\nこれは、とんだ粗相を……", "mob_maid1_fc1", 0],
    },
    552 => { # エリッサ
      :dead_word => ["[Elise]\nもうダメ……", "mob_elf1_fc1", 0],
      :orgasm_word => ["[Elise]\nはぅぅ……", "mob_elf1_fc1", 0],
      :predation_word => ["[Elise]\nやだぁ……", "mob_elf1_fc1", 0],
      :incontinence_word => ["[Elise]\nおもらし、見ちゃダメ……", "mob_elf1_fc1", 0],
    },
    553 => { # フィーズ
      :dead_word => ["[Fizz]\n論文提出、遅れちゃう……", "mob_gakusya1_fc1", 1],
      :orgasm_word => ["[Fizz]\nこんなの初めて……ひゃうん！", "mob_gakusya1_fc1", 1],
      :predation_word => ["[Fizz]\nやだ……やだぁ……！！", "mob_gakusya1_fc1", 1],
      :incontinence_word => ["[Fizz]\nイ、イヤ……こんなの、最低……", "mob_gakusya1_fc1", 1],
    },
    554 => { # ナイチンゲール
      :dead_word => ["[Nightingale]\n誰か看護してくれるぅ……", "mob_nasu1_fc1", 0],
      :orgasm_word => ["[Nightingale]\nああ、ステキ……", "mob_nasu1_fc1", 0],
      :predation_word => ["[Nightingale]\nこんなの、感じちゃう……", "mob_nasu1_fc1", 0],
      :incontinence_word => ["[Nightingale]\nああ、オモラシ見られてるぅ……", "mob_nasu1_fc1", 0],
    },
    555 => { # テレサ
      :dead_word => ["[Teresa]\nきゅう……", "mob_murabito2_fc1", 0],
      :orgasm_word => ["[Teresa]\nイっちゃう……", "mob_murabito2_fc1", 1],
      :predation_word => ["[Teresa]\nやだよぉ……", "mob_murabito2_fc1", 0],
      :incontinence_word => ["[Teresa]\n……見ないで。", "mob_murabito2_fc1", 1],
    },
    556 => { # マリア
      :dead_word => ["[Maria]\n今、神の御許へ……", "mob_sister1_fc1", 0],
      :orgasm_word => ["[Maria]\nこんな……いけません……", "mob_sister1_fc1", 0],
      :predation_word => ["[Maria]\nどうか、それだけは……\nいやぁぁぁ！！", "mob_sister1_fc1", 0],
      :incontinence_word => ["[Maria]\nああ、神よ……許し給え……", "mob_sister1_fc1", 0],
    },
    557 => { # ジャスカ
      :dead_word => ["[Juska]\nヒーローも時には一休み……", "justice_fc1", 0],
      :orgasm_word => ["[Juska]\nヒーローが、こんなぁ……はぅぅ……", "justice_fc1", 0],
      :predation_word => ["[Juska]\nや、やめろ……あぁぁ――！！", "justice_fc1", 0],
      :incontinence_word => ["[Juska]\nはぅぅぅ……\nこんな姿、子供には見せられない……", "justice_fc1", 0],
    },
    558 => { # ナイア
      :dead_word => ["[Naia]\nお役に立てず、すみません……", "mob_uranai1_fc1", 2],
      :orgasm_word => ["[Naia]\nき、気持ちいい……だめぇ……", "mob_uranai1_fc1", 2],
      :predation_word => ["[Naia]\nやだ、やだ……あぁぁぁ！", "mob_uranai1_fc1", 2],
      :incontinence_word => ["[Naia]\nは、恥ずかしい……です……", "mob_uranai1_fc1", 2],
    },
    559 => { # サラーン
      :dead_word => ["[Salaan]\n無念……", "mob_assasin1_fc1", 0],
      :orgasm_word => ["[Salaan]\nこの私が、痴態をさらすなど……", "mob_assasin1_fc1", 0],
      :predation_word => ["[Salaan]\nこの私が、餌となるなど……", "mob_assasin1_fc1", 0],
      :incontinence_word => ["[Salaan]\nくっ……見るな……！", "mob_assasin1_fc1", 0],
    },
    560 => { # メロディ
      :dead_word => ["[Melody]\n疲れたよ……", "mob_odoriko1_fc1", 0],
      :orgasm_word => ["[Melody]\nキモチいいよぉ……", "mob_odoriko1_fc1", 0],
      :predation_word => ["[Melody]\n食べちゃだめぇ……", "mob_odoriko1_fc1", 0],
      :incontinence_word => ["[Melody]\nやめてぇ、見られちゃうよぉ……", "mob_odoriko1_fc1", 0],
    },
    561 => { # ウィッチ
      :dead_word => ["[Witchy]\n我ながら、情けないねぇ……", "mob_majyo1_fc1", 0],
      :orgasm_word => ["[Witchy]\nこんな、イかされるなんてぇ……", "mob_majyo1_fc1", 0],
      :predation_word => ["[Witchy]\nロクな味はしないよ……あぁぁぁ！", "mob_majyo1_fc1", 0],
      :incontinence_word => ["[Witchy]\nみ、見ないでおくれよ……", "mob_majyo1_fc1", 0],
    },
    562 => { # オーラン
      :dead_word => ["[Olan]\nしばらく休むぜ……", "mob_bukiya1_fc1", 0],
      :orgasm_word => ["[Olan]\nく、くそっ……屈辱だ……", "mob_bukiya1_fc1", 0],
      :predation_word => ["[Olan]\n腹にもたれてやるから、覚悟しな……", "mob_bukiya1_fc1", 0],
      :incontinence_word => ["[Olan]\n見るな……見るなよぉ……！", "mob_bukiya1_fc1", 0],
    },
    563 => { # ピラト
      :dead_word => ["[Pilate]\nしょせん、ここまでとは……", "People4", 7],
      :predation_word => ["[Pilate]\nうわぁぁぁぁ！！", "People4", 7],
    },
    564 => { # ヨハネ
      :dead_word => ["[John]\n皆様、申し訳ありません……", "Actor1", 4],
      :predation_word => ["[John]\nこんな……無念……", "Actor1", 4],
    },
    565 => { # サモン
      :dead_word => ["[Samson]\nここで……膝を折るか……", "Actor3", 6],
      :predation_word => ["[Samson]\n美味くもあるまいに……", "Actor3", 6],
    },
    566 => { # スカトロ大尉
      :dead_word => ["[Scat Captain]\n姉さん、助けてよ……姉さん……", "sukatoro_fc6", 0],
      :predation_word => ["[Scat Captain]\n（食べられる事を）強いられているんだ！", "sukatoro_fc15", 0],
    },
    567 => { # パンツ先生
      :dead_word => ["[Panty Sensei]\n真っ白になって燃え尽きましたよ……", "pants_fc1", 3],
      :predation_word => ["[Panty Sensei]\n皆さん、さようなら……", "pants_fc1", 3],
    },
  }
end

